// Jest Snapshot v1, https://goo.gl/fbAQLP

exports[`AnalysisViewComponent should render properly 1`] = `
<div
  className="container"
>
  <div
    className="page-header"
  >
    <h1>
      Analyse
    </h1>
  </div>
  <form
    className="form-horizontal"
  >
    <MetaInformation
      onClickEdit={[Function]}
    />
    <hr />
    <div
      className="form-group"
    >
      <label
        className="control-label col-md-2"
        htmlFor="type"
      >
        Type analyse
      </label>
      <div
        className="col-md-10"
      >
        <p
          className="form-control-static"
          id="type"
        >
          kul analysetype
        </p>
      </div>
    </div>
    <div
      className="form-group"
    >
      <label
        className="control-label col-md-2"
        htmlFor="type"
      >
        method
      </label>
      <div
        className="col-md-3"
      >
        <p
          className="form-control-static"
        >
          moro metode
        </p>
      </div>
    </div>
    <div
      className="form-group"
    >
      <label
        className="control-label col-md-2"
        htmlFor="reason"
      >
        Formål med analysen
         
      </label>
      <div
        className="col-md-10"
      >
        <p
          className="form-control-static"
          id="reason"
        >
          fin purpose
        </p>
      </div>
    </div>
    <div
      className="form-group"
    >
      <label
        className="control-label col-md-2"
        htmlFor="status"
      >
        Status på analysen
      </label>
      <div
        className="col-md-5"
      >
        <p
          className="form-control-static"
          id="status"
        >
          Fin status
        </p>
      </div>
    </div>
    <div
      className="form-group"
    >
      <label
        className="control-label col-md-2"
        htmlFor="status"
      >
        Analysested
      </label>
      <div
        className="col-md-5"
      >
        <p
          className="form-control-static"
          id="status"
        >
          Fin lab
        </p>
      </div>
    </div>
    <div
      className="form-group"
    >
      <label
        className="control-label col-md-2"
        htmlFor="caseNumber"
      >
        Saksnummer
      </label>
      <div
        className="col-md-10"
      >
        <p
          className="form-control-static"
          id="caseNumber"
        />
      </div>
    </div>
    <hr />
    <div
      className="form-group"
    >
      <label
        className="control-label col-md-2"
        htmlFor="note"
      >
        Kommentar
      </label>
      <div
        className="col-md-10"
      >
        <p
          className="form-control-static"
          id="note"
        />
      </div>
    </div>
    <hr />
    <div
      className="form-group"
    >
      <label
        className="control-label"
      >
        Personer tilknyttet analysen
      </label>
    </div>
    <Component
      getDisplayNameForRole={[Function]}
      personData={
        Array [
          Object {
            "name": "jarl",
            "role": "responsible",
          },
          Object {
            "date": "2017-06-29T07:54:22+00:00",
            "name": "line",
            "role": "creator",
          },
        ]
      }
    />
    <hr />
    <div
      className="well"
    >
      <div
        className="form-group"
      >
        <label
          className="col-md-12"
          htmlFor="objects"
        >
          Objekter/prøver
        </label>
      </div>
      <div
        className="form-group"
      >
        <div
          className="col-md-12 col-md-offset-0"
        >
          <ExpandableObjectTable
            appSession={
              Object {
                "accessToken": "45667",
                "actor": Object {
                  "fn": "Test",
                },
                "collectionId": "1234",
                "language": Object {
                  "isEn": false,
                  "isNo": true,
                },
                "museumId": 99,
              }
            }
            data={
              Array [
                Object {
                  "museumNumber": "123",
                  "subNumber": "12345678911",
                  "term": "Spyd",
                  "uuid": "1cbf15cb-8348-4e66-99a4-bc314da57a42",
                },
                Object {
                  "museumNumber": "124",
                  "subNumber": "12345678912",
                  "term": "Beltering",
                  "uuid": "2cbf15cb-8348-4e66-99a4-bc314da57a42",
                },
                Object {
                  "museumNumber": "125",
                  "subNumber": "12345678913",
                  "term": "Øsekar",
                  "uuid": "3cbf15cb-8348-4e66-99a4-bc314da57a42",
                },
              ]
            }
            extraAttributes={Object {}}
            history={
              Object {
                "goBack": [Function],
                "goForward": [Function],
                "push": [Function],
                "replace": [Function],
              }
            }
          />
        </div>
      </div>
      <hr />
      <Result
        externalSource=""
        extraAttributes={Object {}}
        updateComments={[Function]}
        updateExternalSource={[Function]}
        updateExtraResultAttribute={[Function]}
      />
      <div
        className="form-group"
      >
        <label
          className="control-label col-md-2"
          htmlFor="restrictions"
        >
          Klausulering
        </label>
        <div
          className="col-md-10"
        >
          <p
            className="form-control-static"
            id="restrictions"
          >
            Ja
          </p>
        </div>
      </div>
      <div>
        <div
          className="form-group"
        >
          <label
            className="control-label col-md-2"
            htmlFor="requester"
          >
            Klausulert for
          </label>
          <div
            className="col-md-10"
          >
            <p
              className="form-control-static"
              id="requester"
            >
              Jarl
            </p>
          </div>
        </div>
        <div
          className="form-group"
        >
          <label
            className="control-label col-md-2"
            htmlFor="reason"
          >
            Årsak til klausulering
          </label>
          <div
            className="col-md-10"
          >
            <p
              className="form-control-static"
              id="reason"
            >
              fin årsak
            </p>
          </div>
        </div>
        <div
          className="form-group"
        >
          <label
            className="control-label col-md-2"
            htmlFor="caseNumbers"
          >
            Saksnummer
          </label>
          <div
            className="col-md-10"
          >
            <p
              className="form-control-static"
              id="caseNumbers"
            >
              dddd, 44555, 55555
            </p>
          </div>
        </div>
        <div
          className="form-group"
        >
          <label
            className="control-label col-md-2"
            htmlFor="expirationDate"
          >
            Sluttdato
          </label>
          <div
            className="col-md-10"
          >
            <p
              className="form-control-static"
              id="expirationDate"
            >
              29.03.2017
            </p>
          </div>
        </div>
        <div
          className="form-group"
        >
          <label
            className="control-label col-md-2"
            htmlFor="cancelledReason"
          >
            Årsak til oppheving
          </label>
          <div
            className="col-md-10"
          >
            <p
              className="form-control-static"
              id="cancelledReason"
            >
              meh
            </p>
          </div>
        </div>
      </div>
    </div>
  </form>
</div>
`;
