// Jest Snapshot v1, https://goo.gl/fbAQLP

exports[`Administration should render Administration 1`] = `
<div
  className="container"
>
  <div
    className="page-header"
  >
    <h1>
      Administrasjon
    </h1>
  </div>
  <table
    className="table"
  >
    <thead>
      <tr>
        <th>
          Tittel
        </th>
        <th>
          Beskrivelse
        </th>
      </tr>
    </thead>
    <tbody>
      <tr>
        <td>
          <a
            href="/museum/99/collections/1234/administration/analysistypes"
            onClick={[Function]}
          >
            Analysetyper
          </a>
        </td>
        <td>
          Analysetyper for analyse
        </td>
      </tr>
      <tr>
        <td>
          <a
            href="/museum/99/collections/1234/administration/analysisplaces"
            onClick={[Function]}
          >
            Analysesteder
          </a>
        </td>
        <td>
          Analysesteder for analyse
        </td>
      </tr>
      <tr>
        <td>
          <a
            href="/museum/99/collections/1234/administration/sampletypes"
            onClick={[Function]}
          >
            Prøvetyper
          </a>
        </td>
        <td>
          Prøvetyper for prøve
        </td>
      </tr>
    </tbody>
  </table>
</div>
`;
